PatientID,biological_sex,age_start_rt,hpv_positive,asa_score,who_ps,clin_t,clin_n,clin_m,ajcc_stage,had_surgery,had_rt,rt_total_days,rt_dose_grays,fraction_dose_grays,event_death,survival_days_since_rt,followup_days_since_rt,event_local_recur,loc_rec_days_since_rt,event_regio_recur,reg_rec_days_since_rt,event_metastasis,mets_days_since_rt,primary_tumour_loc,pet,ct
HN1004,M,56,0,na,1,4,2,0,iva,0,1,46,70,2,0,3065,1143,0,na,0,na,0,na,oropharynx,,1
HN1006,F,63,0,2,1,1,2,0,iva,0,1,37,68,2,0,2805,876,0,na,0,na,0,na,oropharynx,1,1
HN1022,M,56,1,2,0,1,0,0,i,0,1,37,68,2,0,3198,1269,0,na,0,na,0,na,oropharynx,1,1
HN1026,M,67,na,2,0,4,0,0,iva,0,1,36,68,2,0,3244,1315,1,600,0,na,0,na,larynx,1,1
HN1029,F,54,1,na,0,1,2,0,iva,0,1,37,68,2,0,2925,921,0,na,0,na,0,na,oropharynx,1,1
HN1046,M,66,0,na,0,2,2,0,iva,0,1,37,68,2,1,828,749,0,na,0,na,1,707,oropharynx,,1
HN1047,M,73,na,na,0,1,0,0,i,0,1,32,60,2.4,0,3205,1276,0,na,0,na,0,na,larynx,1,1
HN1054,M,64,1,na,0,2,0,0,ii,0,1,37,68,2,0,2978,1049,0,na,0,na,0,na,oropharynx,1,1
HN1057,F,53,na,1,1,2,1,0,iii,0,1,37,68,2,1,989,847,1,462,1,469,0,na,oropharynx,1,1
HN1060,M,44,0,na,na,4,2,0,iva,0,1,37,68,2,1,1173,1159,0,na,0,na,1,707,oropharynx,,1
HN1062,M,54,na,3,1,1,0,0,i,0,1,36,68,2,1,1229,883,0,na,0,na,0,na,larynx,1,1
HN1067,M,69,0,na,1,3,0,0,iii,0,1,45,70,2,1,3927,2318,0,na,0,na,0,na,oropharynx,,1
HN1074,U,na,na,na,na,na,na,na,na,na,na,na,na,na,na,na,na,na,na,na,na,na,na,na,1,1
HN1077,M,82,na,na,0,1,0,0,i,0,1,35,60,2.4,1,1164,1002,0,na,0,na,0,na,larynx,,1
HN1079,M,71,1,na,1,3,2,0,iva,0,1,37,68,2,1,743,578,0,na,0,na,1,532,oropharynx,1,1
HN1080,M,71,na,na,1,2,1,0,iii,0,1,37,68,2,0,3044,1138,0,na,0,na,0,na,oropharynx,1,1
HN1081,M,55,0,na,1,1,0,0,i,0,1,37,68,2,0,3128,1199,0,na,0,na,0,na,larynx-oropharynx,1,1
HN1083,M,70,na,na,0,1,0,0,i,0,1,44,66,2,0,3128,1199,0,na,0,na,0,na,larynx,1,1
HN1088,F,46,1,na,0,4,2,0,iva,0,1,56,70,2,0,4045,2116,0,na,0,na,0,na,oropharynx,,1
HN1092,F,77,0,na,na,2,1,0,iii,0,1,36,68,2,1,355,197,1,132,1,132,0,na,oropharynx,,1
HN1095,M,62,na,na,2,4,3,0,ivb,0,1,36,68,2,1,398,325,1,317,0,na,0,na,larynx,1,1
HN1096,M,54,0,na,0,4,2,0,iva,0,1,46,70,2,1,3925,2436,0,na,0,na,0,na,oropharynx,,1
HN1102,M,60,0,na,0,3,2,0,iva,0,1,46,70,2,1,103,102,0,na,0,na,0,na,oropharynx,1,1
HN1106,M,80,na,na,0,1,0,0,i,0,1,31,60,2.4,1,2288,837,0,na,0,na,0,na,larynx,1,1
HN1117,M,67,1,na,0,4,2,0,ivb,0,1,37,68,2,1,1668,1371,0,na,0,na,0,na,oropharynx,1,1
HN1118,M,55,na,2,1,4,0,0,iva,0,1,37,68,2,0,2778,849,0,na,0,na,0,na,larynx,1,1
HN1123,M,60,na,na,1,4,0,0,iva,0,1,37,68,2,0,3177,1248,0,na,0,na,0,na,larynx,1,1
HN1127,M,54,na,1,0,1,2,0,iva,0,1,37,68,2,0,2827,898,0,na,0,na,0,na,larynx,1,1
HN1135,M,51,0,na,1,3,1,0,iii,0,1,45,70,2,1,448,430,0,na,1,322,0,na,oropharynx,,1
HN1139,F,64,na,1,1,2,0,0,ii,0,1,37,68,2,0,2798,869,0,na,1,146,0,na,oropharynx,1,1
HN1146,F,65,0,na,1,2,0,0,ii,0,1,37,68,2,1,2056,1577,0,na,0,na,0,na,oropharynx,,1
HN1159,F,50,na,na,1,4,2,0,ivb,0,1,45,70,2,0,3904,1975,0,na,0,na,0,na,oropharynx,,1
HN1170,M,58,na,3,0,3,0,0,iii,0,1,38,68,2,0,3093,1164,0,na,0,na,0,na,larynx,1,1
HN1175,M,74,na,na,1,3,2,1,ivc,0,1,36,68,2,1,194,162,0,na,1,151,0,na,larynx,1,1
HN1180,M,76,0,na,1,4,2,0,iva,0,1,46,70,2,1,599,478,0,na,0,na,0,na,oropharynx,1,1
HN1192,M,60,0,na,na,3,0,0,iii,0,1,36,68,2,1,511,466,0,na,0,na,0,na,oropharynx,,1
HN1197,M,54,0,na,1,3,1,0,iii,0,1,46,70,2,0,3351,1429,0,na,0,na,0,na,oropharynx,1,1
HN1200,M,56,0,na,0,1,0,0,i,0,1,36,68,2,0,4643,2718,0,na,0,na,0,na,oropharynx,,1
HN1201,M,59,1,na,0,1,0,0,i,0,1,37,68,2,0,2925,1040,0,na,0,na,0,na,oropharynx,1,1
HN1208,M,61,na,na,1,4,2,0,iva,0,1,38,68,2,1,55,55,1,38,1,38,0,na,larynx,,1
HN1215,M,54,1,1,1,2,2,0,iva,0,1,47,70,2,0,2831,902,0,na,0,na,0,na,oropharynx,1,1
HN1244,M,65,0,na,1,2,1,0,iii,0,1,39,68,2,1,2599,2025,0,na,0,na,0,na,oropharynx,,1
HN1259,F,69,0,2,0,3,2,0,iva,0,1,37,68,2,1,2331,1783,0,na,0,na,0,na,oropharynx,,1
HN1260,M,47,0,na,na,3,2,0,iva,0,1,37,68,2,0,4734,2809,0,na,0,na,0,na,oropharynx,,1
HN1263,M,69,0,na,na,1,0,0,i,0,1,36,68,2,1,1310,1016,0,na,0,na,0,na,oropharynx,,1
HN1271,M,65,1,na,1,2,0,0,ii,0,1,44,68,2,0,3918,1989,0,na,0,na,0,na,oropharynx,,1
HN1280,M,71,na,2,1,1,0,0,i,0,1,34,60,2.4,0,2846,811,0,na,0,na,0,na,larynx,1,1
HN1294,M,51,na,2,0,2,2,0,iva,0,1,46,70,2,0,2799,870,0,na,0,na,0,na,oropharynx,1,1
HN1305,M,61,na,na,1,2,1,0,iii,0,1,36,68,2,0,3041,1112,0,na,0,na,0,na,oropharynx,1,1
HN1308,F,57,na,na,0,2,2,0,iva,0,1,46,70,2,1,731,718,0,na,0,na,0,na,oropharynx,,1
HN1310,M,57,na,na,1,2,0,0,ii,0,1,44,66,2,0,2972,980,0,na,0,na,0,na,larynx,1,1
HN1319,M,46,0,na,1,4,2,0,iva,0,1,37,68,2,1,595,588,0,na,0,na,0,na,oropharynx,,1
HN1323,M,61,0,na,0,4,2,0,iva,0,1,47,70,2,1,912,827,0,na,0,na,0,na,oropharynx,,1
HN1324,F,50,na,3,0,4,0,0,iva,0,1,37,68,2,1,1998,1031,0,na,0,na,0,na,larynx,1,1
HN1327,M,58,na,na,0,1,0,0,i,0,1,44,66,2,0,3247,1318,0,na,0,na,0,na,larynx,1,1
HN1331,M,46,na,na,na,1,0,0,i,0,1,36,68,2,0,4789,2869,0,na,0,na,0,na,oropharynx,,1
HN1339,M,54,0,na,0,4,0,0,iva,0,1,38,68,2,1,88,81,1,38,0,na,0,na,oropharynx,,1
HN1342,M,79,na,na,0,1,0,0,i,0,1,34,60,2.4,1,2860,945,0,na,0,na,0,na,larynx,,1
HN1344,M,56,0,2,1,4,2,0,iva,0,1,46,70,2,1,1322,1206,0,na,1,318,0,na,oropharynx,1,1
HN1355,M,64,na,2,1,2,0,0,ii,0,1,38,68,2,0,3093,1164,1,358,0,na,0,na,larynx,,1
HN1356,M,66,0,na,0,3,2,0,iva,0,1,37,68,2,1,1538,1483,1,724,0,na,1,1197,oropharynx,,1
HN1357,M,70,na,3,1,4,0,0,iva,0,1,37,68,2,0,2960,1031,1,394,0,na,0,na,larynx,1,1
HN1363,M,74,na,na,0,4,2,0,ivb,0,1,37,68,2,1,2563,1327,0,na,0,na,0,na,larynx,1,1
HN1367,M,63,0,na,0,4,2,0,iva,0,1,36,68,2,1,541,536,0,na,0,na,0,na,oropharynx,,1
HN1368,F,69,1,na,0,1,2,0,iva,0,1,37,68,2,0,3247,1318,0,na,0,na,0,na,oropharynx,1,1
HN1369,M,57,0,na,na,4,2,0,iva,0,1,45,70,2,1,1172,1142,0,na,0,na,0,na,oropharynx,,1
HN1371,M,72,na,na,1,3,0,0,iii,0,1,38,68,2,1,200,154,0,na,0,na,0,na,larynx,1,1
HN1372,M,54,1,na,0,4,0,0,iva,0,1,46,70,2,na,na,1411,0,na,0,na,0,na,oropharynx,,1
HN1395,M,56,1,na,0,4,0,0,iva,0,1,39,68,2,0,3667,1738,0,na,0,na,0,na,oropharynx,,1
HN1400,M,56,0,na,1,4,1,0,iva,0,1,46,70,2,1,2545,1598,0,na,0,na,0,na,oropharynx,,1
HN1412,F,53,0,na,0,3,2,0,iva,0,1,39,68,2,1,2525,1796,0,na,0,na,0,na,oropharynx,,1
HN1417,M,60,0,3,2,4,0,0,iva,0,1,45,70,2,0,3218,1289,0,na,0,na,0,na,oropharynx,1,1
HN1429,M,63,na,na,1,2,2,0,iva,0,1,46,70,2,1,298,267,1,196,0,na,1,196,oropharynx,1,1
HN1442,M,61,na,na,0,4,2,0,iva,0,1,37,68,2,1,179,161,1,147,0,na,0,na,larynx,1,1
HN1444,M,66,na,1,0,1,0,0,i,0,1,43,66,2,0,2796,876,0,na,0,na,0,na,larynx,1,1
HN1461,M,80,na,na,0,4,2,0,iva,0,1,37,68,2,1,220,205,1,174,0,na,0,na,oropharynx,1,1
HN1465,M,61,na,2,0,3,0,0,iii,0,1,37,68,2,0,3275,1346,1,1067,0,na,0,na,larynx,1,1
HN1469,M,59,0,na,0,2,2,0,iva,0,1,47,70,2,1,1594,1182,0,na,0,na,0,na,oropharynx,1,1
HN1483,F,51,1,na,0,2,2,0,iva,0,1,45,70,2,0,4572,2647,0,na,0,na,0,na,oropharynx,,1
HN1485,F,70,na,1,0,2,0,0,ii,0,1,36,68,2,na,na,1023,0,na,1,669,0,na,larynx,1,1
HN1486,M,70,na,na,1,3,2,0,iva,0,1,37,68,2,1,461,137,0,na,0,na,0,na,larynx,1,1
HN1487,M,62,0,na,1,4,2,0,iva,0,1,48,70,2,1,858,697,1,697,1,697,0,na,oropharynx,,1
HN1488,M,57,1,na,1,4,2,0,ivb,0,1,46,70,2,0,3471,1542,0,na,0,na,0,na,oropharynx,,1
HN1491,M,58,0,na,0,4,1,0,iva,0,1,46,70,2,0,3632,1703,0,na,0,na,0,na,oropharynx,,1
HN1500,F,54,na,2,1,4,0,0,iva,0,1,37,68,2,1,2505,912,0,na,0,na,0,na,larynx,1,1
HN1501,M,50,1,na,2,4,2,0,iva,0,1,46,70,2,1,1171,893,0,na,0,na,0,na,oropharynx,,1
HN1502,M,76,na,na,1,3,0,0,iii,0,1,36,50.4,2,1,48,42,1,36,0,na,0,na,larynx,,1
HN1514,M,83,na,na,0,1,0,0,i,0,1,32,60,2.4,0,3023,1094,0,na,0,na,0,na,larynx,,1
HN1517,M,66,0,1,0,2,0,0,ii,0,1,36,68,2,1,1753,848,0,na,0,na,0,na,oropharynx,1,1
HN1519,F,56,0,na,0,4,2,0,iva,0,1,48,70,2,1,475,418,1,285,1,285,1,285,oropharynx,,1
HN1524,M,77,na,na,1,1,0,0,i,0,1,34,60,2.4,1,931,923,0,na,0,na,0,na,larynx,,1
HN1538,F,67,na,2,0,4,1,0,iva,0,1,35,68,2,1,2455,882,1,539,0,na,0,na,larynx,1,1
HN1549,F,57,0,na,0,1,2,0,iva,0,1,37,68,2,1,485,485,0,na,0,na,0,na,oropharynx,,1
HN1554,M,62,na,na,0,1,0,0,i,0,1,44,66,2,0,3365,1436,0,na,0,na,0,na,larynx,,1
HN1555,M,53,0,2,0,4,0,0,iva,0,1,46,70,2,0,2813,884,0,na,0,na,0,na,oropharynx,1,1
HN1560,M,58,1,na,1,2,2,0,iva,0,1,37,68,2,0,4157,2228,0,na,0,na,0,na,oropharynx,,1
HN1562,M,70,na,na,0,1,0,0,i,0,1,33,60,2.4,0,2974,990,0,na,0,na,0,na,larynx,1,1
HN1572,F,53,0,na,1,4,2,0,iva,0,1,50,70,2,0,4307,2382,0,na,0,na,0,na,oropharynx,,1
HN1600,M,63,na,na,1,1,0,0,i,0,1,44,66,2,0,3366,1437,0,na,0,na,0,na,larynx,1,1
HN1609,F,63,0,na,0,2,0,0,ii,0,1,35,68,2,0,3952,2081,0,na,0,na,0,na,oropharynx,,1
HN1610,M,63,na,3,1,3,2,0,iva,0,1,37,68,2,1,2614,1024,0,na,0,na,0,na,larynx,1,1
HN1640,F,62,na,1,0,3,2,0,iva,0,1,45,70,2,0,2826,897,0,na,0,na,0,na,oropharynx,1,1
HN1648,M,63,0,na,1,4,2,0,iva,0,1,37,68,2,1,422,360,0,na,0,na,1,357,oropharynx,1,1
HN1653,M,56,na,na,1,3,0,0,iii,0,1,37,68,2,1,264,263,1,255,0,na,0,na,larynx,1,1
HN1667,M,79,na,na,1,1,0,0,i,0,1,34,60,2.4,1,2079,1303,0,na,0,na,0,na,larynx,,1
HN1679,M,67,na,na,1,1,0,0,i,0,1,46,66,2,0,3351,1422,0,na,0,na,0,na,larynx,1,1
HN1697,M,55,na,na,1,3,0,0,iii,0,1,46,70,2,0,4164,2235,0,na,0,na,0,na,oropharynx,,1
HN1703,M,60,0,na,1,4,0,0,iva,0,1,46,70,2,1,154,137,0,na,0,na,0,na,oropharynx,,1
HN1719,F,56,0,na,0,1,2,0,iva,1,1,47,70,2,0,3478,1549,0,na,0,na,0,na,oropharynx,,1
HN1748,U,na,na,na,na,na,na,na,na,na,na,na,na,na,na,na,na,na,na,na,na,na,na,na,,1
HN1760,M,67,na,2,0,1,0,0,i,0,1,44,66,2,0,2846,917,1,426,0,na,0,na,larynx,1,1
HN1791,M,64,0,na,1,1,1,0,iii,0,1,36,68,2,1,1444,890,0,na,0,na,0,na,oropharynx,1,1
HN1792,M,60,0,na,1,4,2,0,ivb,0,1,48,70,2,1,278,250,1,48,1,48,0,na,oropharynx,,1
HN1793,M,61,0,3,1,2,2,0,iva,0,1,36,68,2,1,424,400,0,na,0,na,1,400,larynx,1,1
HN1805,M,52,1,na,1,4,2,0,ivb,1,1,43,70,2,0,3902,1973,0,na,0,na,0,na,oropharynx,,1
HN1813,M,74,1,na,0,4,1,0,iva,0,1,37,68,2,1,3084,1572,0,na,0,na,0,na,oropharynx,,1
HN1815,M,66,na,3,0,3,0,0,iii,0,1,37,68,2,1,1550,1024,0,na,0,na,0,na,larynx,1,1
HN1827,M,68,0,2,1,1,2,0,iva,0,1,45,70,2,1,468,388,0,na,1,45,0,na,oropharynx,1,1
HN1838,M,62,0,na,1,2,3,0,ivb,0,1,37,68,2,1,3037,2801,0,na,0,na,0,na,oropharynx,,1
HN1839,M,65,0,na,3,4,2,0,iva,0,1,37,68,2,1,281,161,0,na,0,na,0,na,oropharynx,,1
HN1851,M,60,0,na,0,2,2,0,iva,0,1,46,70,2,0,2925,996,0,na,0,na,0,na,oropharynx,1,1
HN1860,M,76,na,na,1,1,0,0,i,0,1,35,60,2.4,0,2733,864,0,na,0,na,0,na,larynx,,1
HN1869,M,46,1,na,0,2,2,0,iva,0,1,46,70,2,0,2869,871,0,na,0,na,0,na,oropharynx,1,1
HN1879,M,51,1,1,1,3,2,0,iva,0,1,47,70,2,0,2824,895,0,na,0,na,0,na,oropharynx,1,1
HN1892,F,53,na,na,1,1,2,0,iva,0,1,37,68,2,0,2999,1070,0,na,0,na,0,na,larynx,1,1
HN1896,M,60,na,2,1,3,0,0,iii,0,1,38,68,2,1,2211,1150,1,282,0,na,0,na,larynx,1,1
HN1900,M,72,0,2,0,4,2,0,ivb,0,1,44,70,2,1,2403,1332,0,na,1,175,0,na,oropharynx,1,1
HN1901,M,52,1,na,0,2,1,0,iii,0,1,37,68,2,0,3933,2004,0,na,0,na,0,na,oropharynx,,1
HN1910,M,76,0,na,0,2,0,0,ii,0,1,37,68,2,1,4055,2784,1,296,0,na,0,na,oropharynx,,1
HN1913,M,67,0,na,na,2,1,0,iii,0,1,37,68,2,1,609,567,0,na,1,448,0,na,oropharynx,,1
HN1922,M,57,na,na,1,4,0,0,iva,0,1,36,68,2,0,3034,1105,0,na,0,na,0,na,larynx,1,1
HN1933,F,62,0,na,1,1,2,0,iva,0,1,37,68,2,1,481,412,0,na,0,na,0,na,oropharynx,1,1
HN1950,M,66,na,na,1,2,1,0,iii,0,1,41,60,2,1,330,280,1,278,0,na,0,na,oropharynx,1,1
HN1954,F,77,0,na,1,2,0,0,ii,0,1,50,70,2,1,4373,2541,0,na,0,na,0,na,oropharynx,,1
HN1968,M,47,na,na,0,4,0,0,iva,0,1,37,68,2,0,3266,1337,0,na,1,1196,0,na,larynx,1,1
HN1987,M,66,1,2,0,4,3,0,ivb,0,1,37,68,2,1,716,602,1,595,0,na,0,na,oropharynx,1,1
HN1998,M,71,na,na,0,3,0,0,iii,0,1,37,68,2,0,3226,1297,0,na,0,na,0,na,larynx,1,1
