PatientID,biological_sex,clinical_t_stage,clinical_n_stage,clinical_m_stage,age_at_diagnosis,overall_ajcc_stage,histology,overall_survival_days,death_status_event,ct_sessions
LUNG1-001,M,2,3,0,78.7515,IIIb,large cell,2165,1,1
LUNG1-002,M,2,0,0,83.8001,I,squamous cell carcinoma,155,1,1
LUNG1-003,M,2,3,0,68.1807,IIIb,large cell,256,1,1
LUNG1-004,M,2,1,0,70.8802,II,squamous cell carcinoma,141,1,1
LUNG1-005,M,4,2,0,80.4819,IIIb,squamous cell carcinoma,353,1,1
LUNG1-006,M,3,1,0,73.8864,IIIa,squamous cell carcinoma,173,1,1
LUNG1-007,M,2,2,0,81.5288,IIIa,squamous cell carcinoma,137,1,1
LUNG1-008,M,2,2,0,71.666,IIIa,adenocarcinoma,77,1,1
LUNG1-009,M,2,2,0,56.1342,IIIa,squamous cell carcinoma,131,1,1
LUNG1-010,F,4,3,0,71.0554,IIIb,squamous cell carcinoma,2119,0,1
LUNG1-011,M,4,0,0,64.3313,IIIb,squamous cell carcinoma,515,1,1
LUNG1-012,M,3,2,0,71.2553,IIIa,squamous cell carcinoma,85,1,1
LUNG1-013,M,2,0,0,65.3635,I,nos,3614,1,1
LUNG1-014,M,4,0,0,66.7707,IIIb,squamous cell carcinoma,1247,1,1
LUNG1-015,M,1,0,0,71.7235,I,large cell,1238,1,1
LUNG1-016,M,2,0,0,79.1129,I,nos,101,1,1
LUNG1-017,M,2,3,0,73.9001,IIIb,large cell,220,1,1
LUNG1-018,M,2,1,0,82.9925,II,squamous cell carcinoma,1926,1,1
LUNG1-019,M,2,0,0,74.82,I,nos,336,1,1
LUNG1-020,M,2,3,0,76.9692,IIIb,na,139,1,1
LUNG1-021,M,3,3,0,54.6475,IIIb,na,326,1,1
LUNG1-022,M,2,0,0,78.601,I,squamous cell carcinoma,442,1,1
LUNG1-023,M,3,2,0,53.7221,IIIa,na,245,1,1
LUNG1-024,F,2,0,0,75.7782,I,adenocarcinoma,1141,1,1
LUNG1-025,M,4,0,0,68.1314,IIIb,adenocarcinoma,1883,1,1
LUNG1-026,M,2,3,0,70.3518,IIIb,adenocarcinoma,25,1,1
LUNG1-027,M,1,0,0,70.1684,I,squamous cell carcinoma,1972,0,1
LUNG1-028,M,1,0,0,78.6776,I,na,479,1,1
LUNG1-029,F,2,2,0,68.9966,IIIa,large cell,257,1,1
LUNG1-030,M,4,0,0,62.4476,IIIb,squamous cell carcinoma,303,1,1
LUNG1-031,M,2,2,0,71.7153,IIIa,squamous cell carcinoma,999,1,1
LUNG1-032,M,2,0,0,75.6934,I,squamous cell carcinoma,543,1,1
LUNG1-033,M,4,2,0,70.601,IIIb,large cell,456,1,1
LUNG1-034,M,3,3,0,55.4305,IIIb,adenocarcinoma,597,1,1
LUNG1-035,M,2,2,0,82.4066,IIIa,squamous cell carcinoma,98,1,1
LUNG1-036,F,2,2,0,54.0068,IIIa,large cell,366,1,1
LUNG1-037,M,1,2,0,74.7543,IIIa,adenocarcinoma,464,1,1
LUNG1-038,F,2,3,0,52.2491,IIIb,large cell,370,1,1
LUNG1-039,M,1,0,0,71.4168,I,na,342,1,1
LUNG1-040,F,3,2,0,58.6274,IIIa,large cell,558,1,1
LUNG1-041,F,1,0,0,74.6092,I,adenocarcinoma,136,1,1
LUNG1-042,M,4,0,0,72.0684,IIIb,squamous cell carcinoma,134,1,1
LUNG1-043,M,2,3,0,74.0561,IIIb,large cell,183,1,1
LUNG1-044,F,4,2,0,50.1958,IIIb,na,170,1,1
LUNG1-045,F,1,1,0,72.6982,II,squamous cell carcinoma,1070,1,1
LUNG1-046,M,2,0,0,80.2245,I,squamous cell carcinoma,73,1,1
LUNG1-047,M,2,2,0,46.5024,IIIa,squamous cell carcinoma,1810,0,1
LUNG1-048,F,4,0,0,64.8378,IIIb,large cell,4328,0,1
LUNG1-049,M,1,0,0,80.7228,I,large cell,1670,1,1
LUNG1-050,M,2,2,0,53.5743,IIIa,squamous cell carcinoma,208,1,1
LUNG1-051,M,2,0,0,51.6906,I,nos,210,1,1
LUNG1-052,M,2,2,0,62.2313,IIIa,adenocarcinoma,73,1,1
LUNG1-053,M,3,0,0,78.7105,II,squamous cell carcinoma,78,1,1
LUNG1-054,M,4,2,0,79.2197,IIIb,squamous cell carcinoma,1076,1,1
LUNG1-055,M,2,3,0,59.2334,IIIb,large cell,192,1,1
LUNG1-056,F,5,2,0,NA,IIIa,na,4454,0,1
LUNG1-057,M,2,2,0,74.9076,IIIa,nos,98,1,1
LUNG1-058,M,2,0,0,82.2779,I,large cell,673,1,1
LUNG1-059,M,2,2,0,49.2594,IIIa,nos,670,1,1
LUNG1-060,M,2,0,0,83.5154,I,large cell,51,1,1
LUNG1-061,M,2,3,0,62.1218,IIIb,squamous cell carcinoma,1573,0,1
LUNG1-062,F,4,2,0,52.7118,IIIb,nos,220,1,1
LUNG1-063,F,3,0,0,72.3477,II,squamous cell carcinoma,1630,0,1
LUNG1-064,M,1,1,0,78.7789,II,squamous cell carcinoma,632,1,1
LUNG1-065,M,2,3,0,76.3395,IIIb,nos,131,1,1
LUNG1-066,M,4,2,0,64.1615,IIIb,na,498,1,1
LUNG1-067,M,1,2,0,75.9671,IIIa,nos,1596,0,1
LUNG1-068,M,2,3,0,79.2827,IIIb,squamous cell carcinoma,916,1,1
LUNG1-069,F,4,0,0,56.8214,IIIb,nos,325,1,1
LUNG1-070,M,2,0,0,79.6632,I,nos,457,1,1
LUNG1-071,F,4,2,0,64.846,IIIb,large cell,2059,1,1
LUNG1-072,M,4,3,3,71.4743,IIIb,nos,377,1,1
LUNG1-073,M,2,3,0,60.6872,IIIb,squamous cell carcinoma,287,1,1
LUNG1-074,M,4,0,0,55.6934,IIIb,nos,939,1,1
LUNG1-075,F,4,3,0,54.7242,IIIb,large cell,128,1,1
LUNG1-076,M,2,2,0,70.2177,IIIa,nos,2481,1,1
LUNG1-077,F,3,0,0,76.794,II,large cell,58,1,1
LUNG1-078,M,1,0,0,87.1266,I,squamous cell carcinoma,1599,1,1
LUNG1-079,M,2,2,0,68.7912,IIIa,nos,255,1,1
LUNG1-080,M,1,0,0,66.3409,I,na,1657,1,1
LUNG1-081,M,2,3,0,62.141,IIIb,nos,1540,0,1
LUNG1-082,M,4,2,0,73.4209,IIIb,squamous cell carcinoma,456,1,1
LUNG1-083,M,2,0,0,65.6345,I,na,1391,1,1
LUNG1-084,F,3,1,0,61.7769,IIIa,large cell,1531,1,1
LUNG1-085,F,NA,3,0,53.6591,IIIb,nos,223,1,1
LUNG1-086,M,4,0,0,62.5955,IIIb,squamous cell carcinoma,911,1,1
LUNG1-087,M,1,0,0,72.7748,I,na,2798,1,1
LUNG1-088,M,4,2,0,65.3963,IIIb,nos,159,1,1
LUNG1-089,F,1,3,0,63.3183,IIIb,adenocarcinoma,1517,0,1
LUNG1-090,M,1,0,0,60.2793,I,na,512,1,1
LUNG1-091,M,3,2,0,76.397,IIIa,nos,258,1,1
LUNG1-092,M,4,0,0,64.9555,IIIb,squamous cell carcinoma,1002,1,1
LUNG1-093,M,3,2,0,49.3443,IIIa,squamous cell carcinoma,132,1,1
LUNG1-094,F,1,0,0,78.7105,I,na,303,1,1
LUNG1-095,F,1,0,0,60.7036,I,adenocarcinoma,70,1,1
LUNG1-096,M,4,0,0,85.6263,IIIb,squamous cell carcinoma,704,1,1
LUNG1-097,M,2,0,0,75.4935,I,nos,79,1,1
LUNG1-098,M,2,0,0,86.141,I,squamous cell carcinoma,391,1,1
LUNG1-099,M,3,0,0,87.0308,II,squamous cell carcinoma,493,1,1
LUNG1-100,F,1,0,0,67.3785,I,na,1474,0,1
LUNG1-101,F,4,2,0,62.4011,IIIb,squamous cell carcinoma,261,1,1
LUNG1-102,F,1,0,0,66.8665,I,nos,1990,1,1
LUNG1-103,M,2,2,0,59.2936,IIIa,large cell,886,1,1
LUNG1-104,M,3,0,0,84.5722,II,squamous cell carcinoma,465,1,1
LUNG1-105,M,3,0,0,70.4723,II,squamous cell carcinoma,209,1,1
LUNG1-106,F,1,3,0,43.384,IIIb,nos,265,1,1
LUNG1-107,M,4,0,0,74.4504,IIIb,adenocarcinoma,197,1,1
LUNG1-108,M,2,3,0,58.6256,IIIb,nos,1460,0,1
LUNG1-109,M,2,1,0,77.5441,II,squamous cell carcinoma,539,1,1
LUNG1-110,F,1,2,0,61.64,IIIa,large cell,1399,0,1
LUNG1-111,M,1,0,0,69.3525,I,na,426,1,1
LUNG1-112,M,2,0,0,71.8439,I,nos,1295,1,1
LUNG1-113,M,2,2,0,83.499,IIIa,large cell,646,1,1
LUNG1-114,F,1,2,0,79.6906,IIIa,adenocarcinoma,1359,1,1
LUNG1-115,M,2,2,0,68.961,IIIa,squamous cell carcinoma,98,1,1
LUNG1-116,M,4,0,0,60.7283,IIIb,squamous cell carcinoma,1636,1,1
LUNG1-117,M,1,3,0,70.5106,IIIb,squamous cell carcinoma,280,1,1
LUNG1-118,M,1,0,0,82.5298,I,large cell,1686,1,1
LUNG1-119,F,4,2,0,56.5969,IIIb,large cell,2380,1,1
LUNG1-120,M,4,0,0,64.6188,IIIb,large cell,1368,1,1
LUNG1-121,M,2,2,0,65.0979,IIIa,squamous cell carcinoma,476,1,1
LUNG1-122,M,1,0,0,61.2485,I,squamous cell carcinoma,1994,1,1
LUNG1-123,F,4,2,0,77.5989,IIIb,adenocarcinoma,201,1,1
LUNG1-124,F,4,3,0,79.039,IIIb,large cell,87,1,1
LUNG1-125,M,4,2,0,64.5722,IIIb,large cell,379,1,1
LUNG1-126,F,1,3,0,68.2601,IIIb,nos,524,1,1
LUNG1-127,F,2,3,0,52.7748,IIIb,large cell,182,1,1
LUNG1-128,F,3,1,0,64.5859,IIIa,nos,335,0,1
LUNG1-129,M,2,3,0,70.7762,IIIb,large cell,1315,0,1
LUNG1-130,F,2,3,0,59.7919,IIIb,adenocarcinoma,4202,0,1
LUNG1-131,M,1,0,0,71.1376,I,adenocarcinoma,543,1,1
LUNG1-132,M,4,0,0,60.4709,IIIb,nos,4208,0,1
LUNG1-133,M,1,0,0,75.2663,I,na,3653,1,1
LUNG1-134,M,1,0,0,67.5866,I,large cell,639,1,1
LUNG1-135,F,4,2,0,57.063,IIIb,squamous cell carcinoma,2010,1,1
LUNG1-136,M,1,0,0,79.4333,I,na,50,1,1
LUNG1-137,M,4,0,0,74.6064,IIIb,nos,308,1,1
LUNG1-138,F,2,0,0,54.9952,I,na,1000,1,1
LUNG1-139,M,4,0,0,80.7036,IIIb,large cell,1210,0,1
LUNG1-140,F,4,0,0,73.2047,IIIb,large cell,128,1,1
LUNG1-141,M,3,0,0,81.0787,II,nos,244,1,1
LUNG1-142,M,2,2,0,69.8946,IIIa,large cell,1520,1,1
LUNG1-143,F,3,3,0,49.0404,IIIb,adenocarcinoma,4118,0,1
LUNG1-144,M,4,0,0,53.525,IIIb,adenocarcinoma,271,1,1
LUNG1-145,M,2,0,0,85.4949,I,squamous cell carcinoma,685,1,1
LUNG1-146,M,1,2,0,67.4771,IIIa,squamous cell carcinoma,87,1,1
LUNG1-147,M,2,2,0,64.7255,IIIa,large cell,1067,1,1
LUNG1-148,M,2,2,0,73.9877,IIIa,large cell,71,1,1
LUNG1-149,M,3,3,0,NA,IIIb,nos,179,1,1
LUNG1-150,F,1,0,0,64.0137,I,squamous cell carcinoma,1853,1,1
LUNG1-151,M,2,1,0,72.9199,II,squamous cell carcinoma,166,1,1
LUNG1-152,M,1,0,0,82.4093,I,nos,1076,1,1
LUNG1-153,F,1,0,0,78.0589,I,large cell,703,1,1
LUNG1-154,F,1,0,0,67.2745,I,na,1723,1,1
LUNG1-155,F,2,3,0,51.1595,IIIb,squamous cell carcinoma,446,1,1
LUNG1-156,M,4,1,0,74.0808,IIIb,large cell,1802,1,1
LUNG1-157,F,1,0,0,57.295,I,na,4067,0,1
LUNG1-158,F,1,2,0,43.2827,IIIa,nos,143,1,1
LUNG1-159,M,2,0,0,79.6523,I,nos,515,1,1
LUNG1-160,M,1,0,0,76.4928,I,nos,1351,1,1
LUNG1-161,M,1,0,0,65.1143,I,na,754,1,1
LUNG1-162,M,1,3,0,76.1561,IIIb,nos,928,1,1
LUNG1-163,F,3,2,0,64.5859,IIIa,squamous cell carcinoma,547,1,1
LUNG1-164,M,2,2,0,66.1875,IIIa,nos,625,1,1
LUNG1-165,F,2,2,0,48.627,IIIa,large cell,4019,0,1
LUNG1-166,M,3,0,0,61.0924,II,nos,4013,0,1
LUNG1-167,M,4,4,0,74.9295,IIIb,squamous cell carcinoma,1357,1,1
LUNG1-168,M,4,0,0,75.1075,IIIb,nos,317,1,1
LUNG1-169,M,4,2,0,69.1828,IIIb,nos,642,1,1
LUNG1-170,M,4,0,0,59.4853,IIIb,large cell,334,1,1
LUNG1-171,M,1,0,0,85.4511,I,na,232,1,1
LUNG1-172,M,3,2,0,47.989,IIIa,large cell,130,1,1
LUNG1-173,F,3,0,0,58.3518,II,squamous cell carcinoma,492,1,1
LUNG1-174,M,1,0,0,NA,I,nos,865,1,1
LUNG1-175,M,2,0,0,80.1999,I,nos,409,1,1
LUNG1-176,F,2,0,0,77.4949,I,adenocarcinoma,52,1,1
LUNG1-177,F,2,2,0,65.0212,IIIa,squamous cell carcinoma,706,1,1
LUNG1-178,M,3,3,0,61.1937,IIIb,large cell,635,1,1
LUNG1-179,M,4,2,0,79.0965,IIIb,large cell,249,1,1
LUNG1-180,F,3,2,0,59.3566,IIIa,nos,1263,1,1
LUNG1-181,M,3,2,0,70.7077,IIIa,squamous cell carcinoma,151,1,1
LUNG1-182,M,4,3,0,42.5133,IIIb,large cell,575,1,1
LUNG1-183,M,1,2,0,61.7084,IIIa,large cell,2472,1,1
LUNG1-184,M,1,0,0,74.5654,I,large cell,1525,1,1
LUNG1-185,M,2,1,0,69.6701,II,na,728,1,1
LUNG1-186,M,4,0,0,67.4661,IIIb,nos,2036,1,1
LUNG1-187,F,2,0,0,58.809,I,nos,756,1,1
LUNG1-188,M,1,2,0,62.6639,IIIa,large cell,907,1,1
LUNG1-189,M,4,3,0,64.1916,IIIb,large cell,65,1,1
LUNG1-190,M,2,0,0,81.2594,I,squamous cell carcinoma,555,1,1
LUNG1-191,M,4,2,0,70.1602,IIIb,large cell,1018,1,1
LUNG1-192,M,4,2,0,76.7201,IIIb,large cell,39,1,1
LUNG1-193,F,2,2,0,66.9733,IIIa,squamous cell carcinoma,3858,0,1
LUNG1-194,M,4,0,0,61.5852,IIIb,na,508,1,1
LUNG1-195,F,1,2,0,63.8713,IIIa,nos,2706,1,1
LUNG1-196,F,2,2,0,85.1116,IIIa,large cell,33,1,1
LUNG1-197,F,4,3,0,60.0383,IIIb,adenocarcinoma,312,1,1
LUNG1-198,M,1,3,0,69.8727,IIIb,large cell,349,1,1
LUNG1-199,F,2,2,0,58.1656,IIIa,nos,3814,0,1
LUNG1-200,M,3,0,0,66.8337,II,adenocarcinoma,468,1,1
LUNG1-201,M,2,0,0,76.4216,I,squamous cell carcinoma,1098,1,1
LUNG1-202,M,3,1,0,69.674,IIIa,squamous cell carcinoma,82,1,1
LUNG1-203,F,2,0,0,79.8877,I,adenocarcinoma,1628,1,1
LUNG1-204,F,1,0,0,76.4846,I,large cell,192,1,1
LUNG1-205,M,4,2,0,76.7283,IIIb,large cell,96,1,1
LUNG1-206,F,1,2,0,66.9158,IIIa,squamous cell carcinoma,448,1,1
LUNG1-207,M,2,0,0,91.7043,I,large cell,357,1,1
LUNG1-208,M,2,2,0,64.7584,IIIa,squamous cell carcinoma,689,1,1
LUNG1-209,M,2,2,0,83.4004,IIIa,large cell,756,1,1
LUNG1-210,M,2,0,0,82.5791,I,squamous cell carcinoma,267,1,1
LUNG1-211,M,2,3,0,54.694,IIIb,large cell,1200,1,1
LUNG1-212,M,1,0,0,78.9021,I,large cell,1661,1,1
LUNG1-213,F,1,2,0,57.2402,IIIa,large cell,944,1,1
LUNG1-214,F,4,0,0,68.1068,IIIb,large cell,415,1,1
LUNG1-215,M,4,0,0,81.7084,IIIb,large cell,491,1,1
LUNG1-216,M,1,3,0,74.7433,IIIb,large cell,211,1,1
LUNG1-217,F,4,2,0,63.4689,IIIb,large cell,132,1,1
LUNG1-218,F,4,0,0,79.102,IIIb,large cell,1286,1,1
LUNG1-219,F,1,2,0,55.9151,IIIa,large cell,1329,1,1
LUNG1-220,M,3,2,0,59.4141,IIIa,nos,508,1,1
LUNG1-221,M,4,3,0,63.1567,IIIb,nos,515,1,1
LUNG1-222,M,3,3,0,78.7488,IIIb,squamous cell carcinoma,926,1,1
LUNG1-223,F,2,0,0,71.9425,I,large cell,3017,1,1
LUNG1-224,F,2,2,0,71.6578,IIIa,adenocarcinoma,799,1,1
LUNG1-225,M,2,0,0,85.7221,I,squamous cell carcinoma,298,1,1
LUNG1-226,M,2,3,0,54.8556,IIIb,large cell,374,1,1
LUNG1-227,M,2,2,0,69.1034,IIIa,large cell,405,1,1
LUNG1-228,F,3,2,0,46.3409,IIIa,large cell,1020,1,1
LUNG1-229,M,4,3,0,56.8241,IIIb,large cell,311,1,1
LUNG1-230,M,2,1,0,75.2088,II,adenocarcinoma,816,1,1
LUNG1-231,M,1,3,0,70.2368,IIIb,nos,1850,1,1
LUNG1-232,M,4,4,0,73.2868,IIIb,large cell,2521,1,1
LUNG1-233,M,4,2,0,53.0842,IIIb,adenocarcinoma,196,1,1
LUNG1-234,M,2,3,0,64.7283,IIIb,large cell,3661,0,1
LUNG1-235,F,2,2,0,50.1958,IIIa,large cell,632,1,1
LUNG1-236,F,2,2,0,73.0897,IIIa,large cell,714,1,1
LUNG1-237,M,4,0,0,58.1985,IIIb,squamous cell carcinoma,2490,1,1
LUNG1-238,M,4,2,0,70.7433,IIIb,nos,3642,0,1
LUNG1-239,M,4,3,0,45.7276,IIIb,adenocarcinoma,3632,0,1
LUNG1-240,M,2,3,0,65.117,IIIb,large cell,3551,0,1
LUNG1-241,M,4,2,0,NA,IIIb,na,164,1,1
LUNG1-242,M,4,3,0,45.0787,IIIb,squamous cell carcinoma,342,1,1
LUNG1-243,M,2,2,0,75.9233,IIIa,large cell,1543,1,1
LUNG1-244,F,4,0,0,53.2293,IIIb,large cell,301,1,1
LUNG1-245,M,4,2,0,68.0931,IIIb,large cell,601,1,1
LUNG1-246,F,2,3,0,48.3532,IIIb,na,3521,0,1
LUNG1-247,F,1,2,0,62.9185,IIIa,large cell,3583,0,1
LUNG1-248,F,4,2,0,64.8214,IIIb,large cell,316,1,1
LUNG1-249,M,4,2,1,NA,IIIb,na,896,1,1
LUNG1-250,M,1,2,0,65.7851,IIIa,adenocarcinoma,1956,1,1
LUNG1-251,F,2,3,0,53.4593,IIIb,nos,1236,1,1
LUNG1-252,M,1,0,0,80.9637,I,adenocarcinoma,104,1,1
LUNG1-253,M,2,0,0,68.4736,I,squamous cell carcinoma,257,1,1
LUNG1-254,F,2,2,0,71.6988,IIIa,large cell,3494,1,1
LUNG1-255,M,1,0,0,73.8658,I,na,433,1,1
LUNG1-256,M,4,2,3,53.0842,IIIb,large cell,291,1,1
LUNG1-257,M,2,2,0,77.2567,IIIa,squamous cell carcinoma,660,1,1
LUNG1-258,M,4,0,0,78.6886,IIIb,squamous cell carcinoma,753,1,1
LUNG1-259,F,4,0,0,59.8549,IIIb,large cell,3535,0,1
LUNG1-260,M,1,0,0,68.4356,I,na,529,1,1
LUNG1-261,F,2,3,0,56.9391,IIIb,nos,857,1,1
LUNG1-262,F,4,0,0,60.6959,IIIb,large cell,134,1,1
LUNG1-263,M,3,0,0,59.4223,II,adenocarcinoma,2572,1,1
LUNG1-264,F,2,3,0,66.0452,IIIb,squamous cell carcinoma,573,1,1
LUNG1-265,M,2,2,0,67.9644,IIIa,squamous cell carcinoma,3040,1,1
LUNG1-266,F,2,2,0,81.5524,IIIa,squamous cell carcinoma,485,1,1
LUNG1-267,M,4,0,0,63.3977,IIIb,large cell,3528,0,1
LUNG1-268,M,2,3,0,64.1697,IIIb,squamous cell carcinoma,161,1,1
LUNG1-269,M,3,3,3,73.0595,IIIa,large cell,193,1,1
LUNG1-270,M,1,2,0,NA,IIIa,nos,300,1,1
LUNG1-271,M,2,2,0,77.399,IIIa,large cell,1490,1,1
LUNG1-272,M,5,2,0,60.1396,na,large cell,288,1,1
LUNG1-273,M,3,0,0,77.8836,II,squamous cell carcinoma,618,1,1
LUNG1-274,M,2,2,0,72.783,IIIa,large cell,439,1,1
LUNG1-275,M,2,3,0,NA,IIIb,large cell,173,1,1
LUNG1-276,M,3,2,0,63.1923,IIIa,squamous cell carcinoma,2730,1,1
LUNG1-277,F,2,3,0,62.5654,IIIb,large cell,733,1,1
LUNG1-278,M,2,0,0,76.5452,II,na,527,1,1
LUNG1-279,M,4,0,0,62.8528,IIIb,squamous cell carcinoma,3435,1,1
LUNG1-280,M,4,2,0,49.3415,IIIb,nos,3402,0,1
LUNG1-281,M,2,0,0,59.0329,II,large cell,1235,1,1
LUNG1-282,M,1,3,0,68.7474,IIIb,large cell,1285,1,1
LUNG1-283,F,4,2,0,61.7194,IIIb,large cell,3480,0,1
LUNG1-284,M,4,3,0,61.4593,IIIb,squamous cell carcinoma,412,1,1
LUNG1-285,M,2,2,0,63.5318,IIIa,adenocarcinoma,303,1,1
LUNG1-286,M,3,2,0,78.9213,IIIa,large cell,113,1,1
LUNG1-287,M,1,3,0,NA,IIIb,na,76,1,1
LUNG1-288,M,1,3,0,62.2505,IIIb,adenocarcinoma,154,1,1
LUNG1-289,F,2,3,0,52.8569,IIIb,large cell,666,1,1
LUNG1-290,F,2,3,0,60.0986,IIIb,squamous cell carcinoma,321,1,1
LUNG1-291,F,2,2,0,65.4839,IIIa,large cell,3460,0,1
LUNG1-292,M,4,4,0,66.2149,IIIb,squamous cell carcinoma,232,1,1
LUNG1-293,M,2,0,0,59.9808,I,nos,720,1,1
LUNG1-294,M,3,1,0,59.8439,IIIa,large cell,3451,0,1
LUNG1-295,M,2,2,0,61.6947,IIIa,squamous cell carcinoma,385,1,1
LUNG1-296,M,2,2,0,72.2026,IIIa,squamous cell carcinoma,177,1,1
LUNG1-297,M,2,3,0,71.2936,IIIb,adenocarcinoma,3383,0,1
LUNG1-298,F,2,0,0,53.0513,I,large cell,699,1,1
LUNG1-299,M,1,0,0,NA,IIIb,squamous cell carcinoma,1005,1,1
LUNG1-300,M,2,3,0,64.5859,IIIb,adenocarcinoma,741,1,1
LUNG1-301,M,2,2,0,81.9192,IIIa,large cell,217,1,1
LUNG1-302,M,4,0,0,67.4059,IIIb,squamous cell carcinoma,2894,1,1
LUNG1-303,M,2,0,0,NA,I,large cell,24,1,1
LUNG1-304,M,3,0,0,55.447,II,large cell,3408,0,1
LUNG1-305,F,1,0,0,NA,I,na,454,1,1
LUNG1-306,F,1,0,0,49.5113,I,na,638,1,1
LUNG1-307,F,1,0,0,NA,I,nos,687,1,1
LUNG1-308,F,2,1,0,NA,II,large cell,213,1,1
LUNG1-309,M,2,0,0,NA,I,na,375,1,1
LUNG1-310,M,4,0,0,44.397,IIIb,nos,109,1,1
LUNG1-311,M,1,0,0,70.0151,I,nos,583,1,1
LUNG1-312,F,2,2,0,65.5058,IIIa,squamous cell carcinoma,392,1,1
LUNG1-313,M,2,1,0,67.0363,I,large cell,1841,1,1
LUNG1-314,M,3,3,0,76.8296,IIIb,adenocarcinoma,609,1,1
LUNG1-315,F,1,0,0,NA,I,na,313,1,1
LUNG1-316,F,2,3,0,69.963,IIIb,large cell,1463,1,1
LUNG1-317,M,2,2,0,72.8761,IIIa,adenocarcinoma,3362,0,1
LUNG1-318,M,2,3,0,63.7454,IIIb,adenocarcinoma,100,1,1
LUNG1-319,F,4,3,0,72.961,IIIb,large cell,663,1,1
LUNG1-320,M,4,0,0,66.1191,IIIb,squamous cell carcinoma,544,1,1
LUNG1-321,M,1,0,0,69.41,I,squamous cell carcinoma,340,1,1
LUNG1-322,M,2,0,0,72.4408,I,adenocarcinoma,1508,1,1
LUNG1-323,M,2,0,0,78.9049,I,squamous cell carcinoma,361,1,1
LUNG1-324,M,4,0,0,76.7721,IIIb,large cell,1963,1,1
LUNG1-325,M,1,3,0,76.293,IIIb,squamous cell carcinoma,741,1,1
LUNG1-326,M,2,0,0,83.989,II,squamous cell carcinoma,195,1,1
LUNG1-327,M,4,0,0,54.7351,IIIb,large cell,261,1,1
LUNG1-328,M,1,0,0,NA,I,na,3247,0,1
LUNG1-329,F,1,0,0,64.0247,I,squamous cell carcinoma,208,1,1
LUNG1-330,M,4,2,0,72.345,IIIb,large cell,1634,1,1
LUNG1-331,M,3,2,0,69.8645,IIIa,nos,549,1,1
LUNG1-332,M,1,0,0,NA,I,na,1208,1,1
LUNG1-333,M,1,2,3,63.6988,IIIa,adenocarcinoma,2985,1,1
LUNG1-334,F,1,0,0,68.0164,I,squamous cell carcinoma,2847,1,1
LUNG1-335,M,3,0,0,77.5606,II,squamous cell carcinoma,744,1,1
LUNG1-336,M,4,0,0,69.3443,IIIb,squamous cell carcinoma,60,1,1
LUNG1-337,F,4,3,0,65.2895,IIIb,large cell,3208,0,1
LUNG1-338,M,1,2,0,74.4203,IIIa,na,118,1,1
LUNG1-339,M,4,2,0,NA,IIIb,squamous cell carcinoma,120,1,1
LUNG1-340,M,3,0,0,83.6824,II,squamous cell carcinoma,859,1,1
LUNG1-341,M,2,0,0,NA,I,squamous cell carcinoma,1157,1,1
LUNG1-342,M,2,2,0,74.1437,IIIa,large cell,166,1,1
LUNG1-343,M,4,2,0,74.8118,IIIb,squamous cell carcinoma,337,1,1
LUNG1-344,M,4,0,0,67.7837,IIIb,nos,587,1,1
LUNG1-345,M,4,0,0,66.0534,IIIb,squamous cell carcinoma,3185,0,1
LUNG1-346,F,1,3,0,52.5777,IIIb,squamous cell carcinoma,1967,1,1
LUNG1-347,F,4,3,0,51.6331,IIIb,squamous cell carcinoma,1586,1,1
LUNG1-348,F,4,2,0,62.4641,IIIb,nos,1672,1,1
LUNG1-349,M,2,1,0,NA,II,adenocarcinoma,183,1,1
LUNG1-350,F,2,3,0,77.4018,IIIb,nos,444,1,1
LUNG1-351,F,4,2,0,52.6434,IIIb,nos,463,1,1
LUNG1-352,M,4,3,0,71.1513,IIIb,squamous cell carcinoma,446,1,1
LUNG1-353,M,2,0,0,78.308,I,na,182,1,1
LUNG1-354,F,1,2,0,NA,IIIa,large cell,617,1,2
LUNG1-355,F,1,0,0,71.4493,I,squamous cell carcinoma,1362,1,2
LUNG1-356,M,1,2,0,54.8904,IIIa,squamous cell carcinoma,278,1,2
LUNG1-357,M,2,0,0,50.2247,II,large cell,1738,1,1
LUNG1-358,F,2,0,0,60.1945,II,squamous cell carcinoma,492,1,1
LUNG1-359,F,1,2,0,66.7205,IIIa,squamous cell carcinoma,220,1,1
LUNG1-360,M,4,2,0,75.4329,IIIb,squamous cell carcinoma,1581,1,1
LUNG1-361,M,4,1,0,88.2658,IIIb,squamous cell carcinoma,166,1,1
LUNG1-362,M,2,2,0,75.4466,IIIa,squamous cell carcinoma,1130,1,1
LUNG1-363,M,4,2,0,68.3178,IIIb,squamous cell carcinoma,107,1,1
LUNG1-364,F,4,0,0,51.0767,IIIb,squamous cell carcinoma,595,1,1
LUNG1-365,M,4,2,0,80.326,IIIb,squamous cell carcinoma,284,1,1
LUNG1-366,M,1,3,0,79.726,IIIa,squamous cell carcinoma,330,1,1
LUNG1-367,M,4,0,0,66.589,IIIb,squamous cell carcinoma,615,1,1
LUNG1-368,M,4,0,0,75.589,IIIb,squamous cell carcinoma,1013,1,1
LUNG1-369,F,1,3,0,54.3616,IIIa,squamous cell carcinoma,522,1,1
LUNG1-370,M,2,2,0,48.1753,IIIa,large cell,502,1,1
LUNG1-371,M,3,0,0,76.5781,II,squamous cell carcinoma,2129,1,1
LUNG1-372,M,1,3,0,77.0986,IIIa,squamous cell carcinoma,715,1,1
LUNG1-373,F,2,2,0,57.9123,IIIa,adenocarcinoma,367,1,1
LUNG1-374,M,2,2,0,78.2274,IIIa,squamous cell carcinoma,10,1,1
LUNG1-375,F,4,3,0,60.1589,IIIb,adenocarcinoma,120,1,1
LUNG1-376,M,3,2,0,83.589,IIIa,squamous cell carcinoma,140,1,1
LUNG1-377,M,3,2,0,61.7945,IIIa,large cell,417,1,1
LUNG1-378,F,4,0,0,70.5397,IIIb,squamous cell carcinoma,2891,0,1
LUNG1-379,F,2,3,0,67.2164,IIIb,squamous cell carcinoma,2040,1,1
LUNG1-380,M,4,0,0,72.8877,IIIb,squamous cell carcinoma,2879,0,1
LUNG1-381,F,3,2,0,83.0548,IIIa,squamous cell carcinoma,18,1,1
LUNG1-382,M,1,2,0,57.5288,IIIa,squamous cell carcinoma,1358,1,1
LUNG1-383,M,1,3,0,67.2822,IIIa,squamous cell carcinoma,457,1,1
LUNG1-384,M,4,0,0,88.3863,IIIb,squamous cell carcinoma,906,1,1
LUNG1-385,M,2,0,0,NA,II,adenocarcinoma,936,1,1
LUNG1-386,M,1,3,0,33.6849,IIIa,squamous cell carcinoma,381,1,1
LUNG1-387,F,4,0,0,88.3479,IIIb,squamous cell carcinoma,301,1,1
LUNG1-388,M,1,1,0,77.1808,II,adenocarcinoma,1188,1,1
LUNG1-389,F,3,3,0,78.3425,IIIa,squamous cell carcinoma,371,1,1
LUNG1-390,M,2,1,0,71.2904,II,adenocarcinoma,2017,1,1
LUNG1-391,F,2,0,0,60.0822,I,squamous cell carcinoma,256,1,1
LUNG1-392,M,2,0,0,85.6055,I,adenocarcinoma,672,1,1
LUNG1-393,M,3,2,0,72.2849,IIIa,squamous cell carcinoma,806,1,1
LUNG1-394,M,1,0,0,72.2219,I,na,344,1,1
LUNG1-395,F,3,0,0,78.4164,II,adenocarcinoma,249,1,1
LUNG1-396,F,4,2,0,59.1616,IIIb,squamous cell carcinoma,1059,1,1
LUNG1-397,F,4,3,0,66.674,IIIb,squamous cell carcinoma,249,1,1
LUNG1-398,M,2,2,0,79.7014,IIIa,squamous cell carcinoma,1731,1,1
LUNG1-399,F,1,2,0,77.7973,IIIa,squamous cell carcinoma,2835,0,1
LUNG1-400,F,4,2,0,67.7288,IIIb,squamous cell carcinoma,423,1,1
LUNG1-401,M,4,3,0,58.274,IIIb,squamous cell carcinoma,203,1,1
LUNG1-402,M,4,0,0,68.6932,IIIb,na,1617,1,1
LUNG1-403,F,3,3,0,57.1096,IIIa,adenocarcinoma,2098,1,1
LUNG1-404,M,3,2,0,74.2356,IIIa,squamous cell carcinoma,280,1,1
LUNG1-405,F,2,0,0,68.7342,I,squamous cell carcinoma,882,1,1
LUNG1-406,M,2,0,0,82.1534,II,squamous cell carcinoma,314,0,1
LUNG1-407,F,2,0,0,73.2877,II,squamous cell carcinoma,340,1,1
LUNG1-408,F,2,0,0,73.1726,II,squamous cell carcinoma,194,1,1
LUNG1-409,M,4,0,0,71.7096,IIIb,squamous cell carcinoma,2802,0,1
LUNG1-410,M,3,2,0,72.7616,IIIa,adenocarcinoma,303,1,1
LUNG1-411,F,2,2,0,61.8932,IIIa,adenocarcinoma,583,1,1
LUNG1-412,M,4,0,0,67.2247,IIIb,squamous cell carcinoma,243,1,1
LUNG1-413,F,4,2,0,60.5315,IIIb,squamous cell carcinoma,246,1,1
LUNG1-414,F,3,2,0,50.8274,IIIa,adenocarcinoma,292,1,1
LUNG1-415,F,1,0,0,79.8712,I,adenocarcinoma,2517,1,1
LUNG1-416,M,2,1,0,69.9918,II,squamous cell carcinoma,409,1,1
LUNG1-417,M,4,2,0,65.5616,IIIb,squamous cell carcinoma,648,1,1
LUNG1-418,M,2,0,0,53.6712,I,adenocarcinoma,346,1,1
LUNG1-419,M,4,1,0,66.5096,IIIb,squamous cell carcinoma,2772,0,1
LUNG1-420,M,2,1,0,73.3808,II,squamous cell carcinoma,2429,1,1
LUNG1-421,F,2,2,0,61.7041,IIIa,squamous cell carcinoma,369,1,1
LUNG1-422,F,2,0,0,68.126,I,na,1590,1,1
